{
	"results": [ {
		"code": "2053367",
		"name": "EOS 500<em class=\"search-results-highlight\">D</em> + EF-S 18-200mm f/3.5-5.6 IS",
		"url": "/Men/Cameras/Digital-Cameras/Digital-SLR/EOS-500D-%2B-EF-S-18-200mm-f-3-5-5-6-IS/p/2053367",
		"description": "",
		"purchasable": null,
		"stock": {
			"stockLevelStatus": {
				"code": "inStock",
				"type": "StockLevelStatus"
			},
			"stockLevel": null,
			"stockThreshold": null
		},
		"futureStocks": null,
		"availableForPickup": false,
		"averageRating": null,
		"numberOfReviews": null,
		"summary": null,
		"manufacturer": "Canon",
		"variantType": null,
		"price": {
			"currencyIso": "USD",
			"value": 2410.42,
			"priceType": "BUY",
			"formattedValue": "$2,410.42",
			"minQuantity": null,
			"maxQuantity": null
		},
		"baseProduct": null,
		"images": [{
			"imageType": "PRIMARY",
			"format": "thumbnail",
			"url": "/medias/?context=bWFzdGVyfGltYWdlc3wyNjE4NHxpbWFnZS9wbmd8aW1hZ2VzL2hhOS9oMWEvODc5NjM1MTg1NjY3MC5wbmd8NTY0OGNkOTliYjUxZjIyYTQ4MTBiNjQyNGI3YTRlZjMxZGViMjFhMjYyZDMwNThhNjIwMzZjOTA1YzE4YWU5Nw",
			"altText": null,
			"galleryIndex": null,
			"width": null
		}, {
			"imageType": "PRIMARY",
			"format": "product",
			"url": "/medias/?context=bWFzdGVyfGltYWdlc3w0NDkwODh8aW1hZ2UvcG5nfGltYWdlcy9oZTcvaDcxLzg3OTYzNTE3OTExMzQucG5nfGZjZjg0MjBhNzg2ZmNmNWYyMTBiMDQ5MDYxMjQyZTM2NWU4ZTQxOTgxMWM1NmE1ZWRlMzA3MGU3OTRjOGU3ZmE",
			"altText": null,
			"galleryIndex": null,
			"width": null
		}],
		"categories": null,
		"reviews": null,
		"classifications": [{
			"code": "41",
			"name": "Display",
			"features": [{
				"code": "EdgewellClassification/1.0/41.display, 83",
				"name": "Display",
				"description": null,
				"type": null,
				"range": false,
				"comparable": true,
				"featureUnit": {
					"symbol": ".",
					"name": ".",
					"unitType": "300"
				},
				"featureValues": [{
					"value": "TFT"
				}]
			}]
		}, {
			"code": "42",
			"name": "Memory",
			"features": [{
				"code": "EdgewellClassification/1.0/42.compatible memory cards, 730",
				"name": "Compatible memory cards",
				"description": null,
				"type": null,
				"range": false,
				"comparable": true,
				"featureUnit": {
					"symbol": ".",
					"name": ".",
					"unitType": "300"
				},
				"featureValues": [{
					"value": "sd"
				}]
			}]
		}],
		"potentialPromotions": null,
		"variantOptions": null,
		"baseOptions": null,
		"volumePricesFlag": false,
		"volumePrices": null,
		"productReferences": null,
		"variantMatrix": null,
		"priceRange": {
			"minPrice": null,
			"maxPrice": null
		},
		"firstCategoryNameList": null,
		"multidimensional": false,
		"configurable": false,
		"addToCartDisabled": null,
		"addToCartDisabledMessage": null,
		"keywords": null,
		"genders": null,
		"displayReview": false
	}, {
		"code": "3557133",
		"name": "EOS 500<em class=\"search-results-highlight\">D</em> + EF-S 18-55IS + EF-S 55-250IS",
		"url": "/Men/Cameras/Digital-Cameras/Digital-SLR/EOS-500D-%2B-EF-S-18-55IS-%2B-EF-S-55-250IS/p/3557133",
		"description": "",
		"purchasable": null,
		"stock": {
			"stockLevelStatus": {
				"code": "inStock",
				"type": "StockLevelStatus"
			},
			"stockLevel": null,
			"stockThreshold": null
		},
		"futureStocks": null,
		"availableForPickup": false,
		"averageRating": null,
		"numberOfReviews": null,
		"summary": null,
		"manufacturer": "Canon",
		"variantType": null,
		"price": {
			"currencyIso": "USD",
			"value": 929.88,
			"priceType": "BUY",
			"formattedValue": "$929.88",
			"minQuantity": null,
			"maxQuantity": null
		},
		"baseProduct": null,
		"images": [{
			"imageType": "PRIMARY",
			"format": "thumbnail",
			"url": "/medias/?context=bWFzdGVyfGltYWdlc3wyNjE4NHxpbWFnZS9wbmd8aW1hZ2VzL2g3Zi9oODIvODc5NjM1MjY0MzEwMi5wbmd8ZjZkMjEyNjNkNDk5ZDQ3ZjBjMGYxNmJmOTVkZWExNTI0YWU3N2ViNzlhZmVmODVkZTgxNjc3OGViYTU5NDgxMw",
			"altText": null,
			"galleryIndex": null,
			"width": null
		}, {
			"imageType": "PRIMARY",
			"format": "product",
			"url": "/medias/?context=bWFzdGVyfGltYWdlc3w0NDkwODh8aW1hZ2UvcG5nfGltYWdlcy9oYWUvaDA5Lzg3OTYzNTI1Nzc1NjYucG5nfDkxYmZlNjBmM2Y1OTQwYzM1MDNmODEzZmQ5YjBhZGUwYzQzYzM4YmIwOTlmMzJlMmUzNDc0ZmJhNGQ1Njc2YjQ",
			"altText": null,
			"galleryIndex": null,
			"width": null
		}],
		"categories": null,
		"reviews": null,
		"classifications": [{
			"code": "41",
			"name": "Display",
			"features": [{
				"code": "EdgewellClassification/1.0/41.display, 83",
				"name": "Display",
				"description": null,
				"type": null,
				"range": false,
				"comparable": true,
				"featureUnit": {
					"symbol": ".",
					"name": ".",
					"unitType": "300"
				},
				"featureValues": [{
					"value": "TFT"
				}]
			}]
		}, {
			"code": "42",
			"name": "Memory",
			"features": [{
				"code": "EdgewellClassification/1.0/42.compatible memory cards, 730",
				"name": "Compatible memory cards",
				"description": null,
				"type": null,
				"range": false,
				"comparable": true,
				"featureUnit": {
					"symbol": ".",
					"name": ".",
					"unitType": "300"
				},
				"featureValues": [{
					"value": "sd"
				}]
			}]
		}],
		"potentialPromotions": null,
		"variantOptions": null,
		"baseOptions": null,
		"volumePricesFlag": false,
		"volumePrices": null,
		"productReferences": null,
		"variantMatrix": null,
		"priceRange": {
			"minPrice": null,
			"maxPrice": null
		},
		"firstCategoryNameList": null,
		"multidimensional": false,
		"configurable": false,
		"addToCartDisabled": null,
		"addToCartDisabledMessage": null,
		"keywords": null,
		"genders": null,
		"displayReview": false
	}, {
		"code": "29925",
		"name": "VCT-<em class=\"search-results-highlight\">D580RM</em> Remote Control Tripod",
		"url": "/Men/Cameras/Digital-Cameras/Digital-SLR/Tripods/VCT-D580RM-Remote-Control-Tripod/p/29925",
		"description": "",
		"purchasable": null,
		"stock": {
			"stockLevelStatus": {
				"code": "outOfStock",
				"type": "StockLevelStatus"
			},
			"stockLevel": 0,
			"stockThreshold": null
		},
		"futureStocks": null,
		"availableForPickup": false,
		"averageRating": 4.64,
		"numberOfReviews": null,
		"summary": "Run the show with just one hand with this remote tripod that lets you steady the camcorder or digital camera and operate it directly from the tripod grip. (expandable from 17.5\"\" to 45\"\").",
		"manufacturer": "Sony",
		"variantType": null,
		"price": {
			"currencyIso": "USD",
			"value": 115.0,
			"priceType": "BUY",
			"formattedValue": "$115.00",
			"minQuantity": null,
			"maxQuantity": null
		},
		"baseProduct": null,
		"images": [{
			"imageType": "PRIMARY",
			"format": "thumbnail",
			"url": "/medias/?context=bWFzdGVyfGltYWdlc3wyMTE1fGltYWdlL2pwZWd8aW1hZ2VzL2hhZC9oOWMvODc5NjI4NDMyMTgyMi5qcGd8MGVhNjIyZTk2YTA2NGMzNDYzNzgzMjU1MWFiNTBmYzVhNzBkOGRhZDRhOGNhODAxOGNiZmIwY2E2ODQ4YzdkNA",
			"altText": null,
			"galleryIndex": null,
			"width": null
		}, {
			"imageType": "PRIMARY",
			"format": "product",
			"url": "/medias/?context=bWFzdGVyfGltYWdlc3w3NjAyfGltYWdlL2pwZWd8aW1hZ2VzL2g4Yi9oMDcvODc5NjI1Nzk3NjM1MC5qcGd8OTk1M2I1YjJlNjMyYjIzY2ViY2E3OGQxNWRmZWUyNzlhMmI4MWYzNjY4ZDcyMjJlMWM0Mzg2NDhiOTIyZDRlOQ",
			"altText": null,
			"galleryIndex": null,
			"width": null
		}],
		"categories": null,
		"reviews": null,
		"classifications": null,
		"potentialPromotions": null,
		"variantOptions": null,
		"baseOptions": null,
		"volumePricesFlag": false,
		"volumePrices": null,
		"productReferences": null,
		"variantMatrix": null,
		"priceRange": {
			"minPrice": null,
			"maxPrice": null
		},
		"firstCategoryNameList": null,
		"multidimensional": false,
		"configurable": false,
		"addToCartDisabled": null,
		"addToCartDisabledMessage": null,
		"keywords": null,
		"genders": null,
		"displayReview": false
	}, {
		"code": "2053266",
		"name": "EOS 500<em class=\"search-results-highlight\">D</em> body",
		"url": "/Men/Cameras/Digital-Cameras/Digital-SLR/EOS-500D-body/p/2053266",
		"description": "",
		"purchasable": null,
		"stock": {
			"stockLevelStatus": {
				"code": "outOfStock",
				"type": "StockLevelStatus"
			},
			"stockLevel": 0,
			"stockThreshold": null
		},
		"futureStocks": null,
		"availableForPickup": false,
		"averageRating": 3.625,
		"numberOfReviews": null,
		"summary": "EOS 500<em class=\"search-results-highlight\">D</em> body - 15.1 MP CMOS",
		"manufacturer": "Canon",
		"variantType": null,
		"price": {
			"currencyIso": "USD",
			"value": 1391.34,
			"priceType": "BUY",
			"formattedValue": "$1,391.34",
			"minQuantity": null,
			"maxQuantity": null
		},
		"baseProduct": null,
		"images": [{
			"imageType": "PRIMARY",
			"format": "thumbnail",
			"url": "/medias/?context=bWFzdGVyfGltYWdlc3wyNjE4NHxpbWFnZS9wbmd8aW1hZ2VzL2g0Yy9oNWYvODc5NjM1MTA3MDIzOC5wbmd8ZTE0ZmRkNzE0NDQ2ZGIzYTU1MTY5MDI3ZjZlZTE3Mzg1MTY3ZWJlYmViY2YyNjI3OTgxY2Y0NjIxYTJhN2RmNA",
			"altText": null,
			"galleryIndex": null,
			"width": null
		}, {
			"imageType": "PRIMARY",
			"format": "product",
			"url": "/medias/?context=bWFzdGVyfGltYWdlc3w0NDkwODh8aW1hZ2UvcG5nfGltYWdlcy9oNTAvaDc3Lzg3OTYzNTEwMDQ3MDIucG5nfGY2YjVjNjhhOWI5ODBkMDA0NTZkM2VhNDI0NGIyZWUwY2JhZWRmZDk5ZGUwMmQyOGQ3NWJhMTYzNzZhZTg3ZTE",
			"altText": null,
			"galleryIndex": null,
			"width": null
		}],
		"categories": null,
		"reviews": null,
		"classifications": [{
			"code": "41",
			"name": "Display",
			"features": [{
				"code": "EdgewellClassification/1.0/41.display, 83",
				"name": "Display",
				"description": null,
				"type": null,
				"range": false,
				"comparable": true,
				"featureUnit": {
					"symbol": ".",
					"name": ".",
					"unitType": "300"
				},
				"featureValues": [{
					"value": "TFT"
				}]
			}]
		}, {
			"code": "42",
			"name": "Memory",
			"features": [{
				"code": "EdgewellClassification/1.0/42.compatible memory cards, 730",
				"name": "Compatible memory cards",
				"description": null,
				"type": null,
				"range": false,
				"comparable": true,
				"featureUnit": {
					"symbol": ".",
					"name": ".",
					"unitType": "300"
				},
				"featureValues": [{
					"value": "sd"
				}]
			}]
		}],
		"potentialPromotions": null,
		"variantOptions": null,
		"baseOptions": null,
		"volumePricesFlag": false,
		"volumePrices": null,
		"productReferences": null,
		"variantMatrix": null,
		"priceRange": {
			"minPrice": null,
			"maxPrice": null
		},
		"firstCategoryNameList": null,
		"multidimensional": false,
		"configurable": false,
		"addToCartDisabled": null,
		"addToCartDisabledMessage": null,
		"keywords": null,
		"genders": null,
		"displayReview": false
	}, {
		"code": "726510",
		"name": "EOS 30<em class=\"search-results-highlight\">D</em> SLR-Digital Camera 8 Mpix",
		"url": "/Men/Cameras/Digital-Cameras/Digital-SLR/EOS-30D-SLR-Digital-Camera-8-Mpix/p/726510",
		"description": "",
		"purchasable": null,
		"stock": {
			"stockLevelStatus": {
				"code": "outOfStock",
				"type": "StockLevelStatus"
			},
			"stockLevel": 0,
			"stockThreshold": null
		},
		"futureStocks": null,
		"availableForPickup": false,
		"averageRating": null,
		"numberOfReviews": null,
		"summary": "Realise your photographic vision with the EOS 30<em class=\"search-results-highlight\">D</em>.",
		"manufacturer": "Canon",
		"variantType": null,
		"price": {
			"currencyIso": "USD",
			"value": 1035.25,
			"priceType": "BUY",
			"formattedValue": "$1,035.25",
			"minQuantity": null,
			"maxQuantity": null
		},
		"baseProduct": null,
		"images": [{
			"imageType": "PRIMARY",
			"format": "thumbnail",
			"url": "/medias/?context=bWFzdGVyfGltYWdlc3wxNzA2fGltYWdlL2pwZWd8aW1hZ2VzL2gwNy9oMjgvODc5NjI5MzM2NTc5MC5qcGd8YjU4OGUzMjk0N2I1NGJiMzFjMDYxMDI0YmYzOGQ5ZjY1NWRlMzhjN2ZjY2ZmODdiMTZmODgzM2VmYjVkNDNlMw",
			"altText": null,
			"galleryIndex": null,
			"width": null
		}, {
			"imageType": "PRIMARY",
			"format": "product",
			"url": "/medias/?context=bWFzdGVyfGltYWdlc3w2NTk4fGltYWdlL2pwZWd8aW1hZ2VzL2hhZS9oMjQvODc5NjI2NzAyMDMxOC5qcGd8YzM5NjI0Y2E5N2RlNDYwMGIzYzI3OGUzYWJjMzU1NGNhNzIyZDdiZWE3MGZkMWRhMmMxYzQ2YzgyNGJmYWRmNw",
			"altText": null,
			"galleryIndex": null,
			"width": null
		}],
		"categories": null,
		"reviews": null,
		"classifications": [{
			"code": "41",
			"name": "Display",
			"features": [{
				"code": "EdgewellClassification/1.0/41.display, 83",
				"name": "Display",
				"description": null,
				"type": null,
				"range": false,
				"comparable": true,
				"featureUnit": {
					"symbol": ".",
					"name": ".",
					"unitType": "300"
				},
				"featureValues": [{
					"value": "TFT"
				}]
			}]
		}, {
			"code": "42",
			"name": "Memory",
			"features": [{
				"code": "EdgewellClassification/1.0/42.compatible memory cards, 730",
				"name": "Compatible memory cards",
				"description": null,
				"type": null,
				"range": false,
				"comparable": true,
				"featureUnit": {
					"symbol": ".",
					"name": ".",
					"unitType": "300"
				},
				"featureValues": [{
					"value": "sd,mmc,microdrive"
				}]
			}]
		}],
		"potentialPromotions": null,
		"variantOptions": null,
		"baseOptions": null,
		"volumePricesFlag": false,
		"volumePrices": null,
		"productReferences": null,
		"variantMatrix": null,
		"priceRange": {
			"minPrice": null,
			"maxPrice": null
		},
		"firstCategoryNameList": null,
		"multidimensional": false,
		"configurable": false,
		"addToCartDisabled": null,
		"addToCartDisabledMessage": null,
		"keywords": null,
		"genders": null,
		"displayReview": false
	}, {
		"code": "726511",
		"name": "EOS 30<em class=\"search-results-highlight\">D</em> SLR-Digital Camera 8 Mpix inkl. EF-S 18-55mm",
		"url": "/Men/Cameras/Digital-Cameras/Digital-SLR/EOS-30D-SLR-Digital-Camera-8-Mpix-inkl-EF-S-18-55mm/p/726511",
		"description": "",
		"purchasable": null,
		"stock": {
			"stockLevelStatus": {
				"code": "outOfStock",
				"type": "StockLevelStatus"
			},
			"stockLevel": 0,
			"stockThreshold": null
		},
		"futureStocks": null,
		"availableForPickup": false,
		"averageRating": null,
		"numberOfReviews": null,
		"summary": "Realise your photographic vision with the EOS 30<em class=\"search-results-highlight\">D</em> with the EF-S 18-55mm lens.",
		"manufacturer": "Canon",
		"variantType": null,
		"price": {
			"currencyIso": "USD",
			"value": 1088.28,
			"priceType": "BUY",
			"formattedValue": "$1,088.28",
			"minQuantity": null,
			"maxQuantity": null
		},
		"baseProduct": null,
		"images": [{
			"imageType": "PRIMARY",
			"format": "thumbnail",
			"url": "/medias/?context=bWFzdGVyfGltYWdlc3wxNjk0fGltYWdlL2pwZWd8aW1hZ2VzL2g4NS9oYjYvODc5NjI5MzQzMTMyNi5qcGd8OGY0YjdiZDg5ZTVkZjYxNGU3MmQ3YWY5YjBiY2IwOGRlODQxNzFkNzgyMjg1NTMxNmU5NWQ3YjQ4YWRkZDdmYg",
			"altText": null,
			"galleryIndex": null,
			"width": null
		}, {
			"imageType": "PRIMARY",
			"format": "product",
			"url": "/medias/?context=bWFzdGVyfGltYWdlc3w1OTYyfGltYWdlL2pwZWd8aW1hZ2VzL2gxYy9oYmIvODc5NjI2NzA4NTg1NC5qcGd8OTQwNTE3YzIxMTJkZGY4YzhkYWMwYmM0MDJhNjdiY2RhMDc1NTk0YTVlZGExZTVkYTIyNTE4YWFmZTE0YTIxNg",
			"altText": null,
			"galleryIndex": null,
			"width": null
		}],
		"categories": null,
		"reviews": null,
		"classifications": [{
			"code": "41",
			"name": "Display",
			"features": [{
				"code": "EdgewellClassification/1.0/41.display, 83",
				"name": "Display",
				"description": null,
				"type": null,
				"range": false,
				"comparable": true,
				"featureUnit": {
					"symbol": ".",
					"name": ".",
					"unitType": "300"
				},
				"featureValues": [{
					"value": "TFT"
				}]
			}]
		}, {
			"code": "42",
			"name": "Memory",
			"features": [{
				"code": "EdgewellClassification/1.0/42.compatible memory cards, 730",
				"name": "Compatible memory cards",
				"description": null,
				"type": null,
				"range": false,
				"comparable": true,
				"featureUnit": {
					"symbol": ".",
					"name": ".",
					"unitType": "300"
				},
				"featureValues": [{
					"value": "sd,mmc,microdrive"
				}]
			}]
		}],
		"potentialPromotions": null,
		"variantOptions": null,
		"baseOptions": null,
		"volumePricesFlag": false,
		"volumePrices": null,
		"productReferences": null,
		"variantMatrix": null,
		"priceRange": {
			"minPrice": null,
			"maxPrice": null
		},
		"firstCategoryNameList": null,
		"multidimensional": false,
		"configurable": false,
		"addToCartDisabled": null,
		"addToCartDisabledMessage": null,
		"keywords": null,
		"genders": null,
		"displayReview": false
	}],
	"sorts": [{
		"code": "relevance",
		"name": "Relevance",
		"selected": true
	}, {
		"code": "topRated",
		"name": "Top Rated",
		"selected": false
	}, {
		"code": "name-asc",
		"name": "Name (ascending)",
		"selected": false
	}, {
		"code": "name-desc",
		"name": "Name (descending)",
		"selected": false
	}, {
		"code": "price-asc",
		"name": "Price (lowest first)",
		"selected": false
	}, {
		"code": "price-desc",
		"name": "Price (highest first)",
		"selected": false
	}],
	"pagination": {
		"pageSize": 2000,
		"currentPage": 0,
		"sort": "relevance",
		"numberOfPages": 1,
		"totalNumberOfResults": 16
	},
	"currentQuery": {
		"url": "/search?q=D580RM%3Arelevance",
		"query": {
			"value": "D580RM&#x3a;relevance",
			"filterQueries": [],
			"searchQueryContext": null
		}
	},
	"breadcrumbs": [],
	"facets": [{
		"code": "price",
		"name": "Price",
		"priority": 4000,
		"category": false,
		"multiSelect": true,
		"visible": true,
		"topValues": null,
		"values": [{
			"code": "$0-$49.99",
			"name": "$0-$49.99",
			"count": 1,
			"query": {
				"url": "/search?q=D580RM%3Arelevance%3Aprice%3A%25240-%252449.99",
				"query": {
					"value": "D580RM:relevance:price:%240-%2449.99",
					"filterQueries": [],
					"searchQueryContext": null
				}
			},
			"selected": true
		}, {
			"code": "$50-$199.99",
			"name": "$50-$199.99",
			"count": 1,
			"query": {
				"url": "/search?q=D580RM%3Arelevance%3Aprice%3A%252450-%2524199.99",
				"query": {
					"value": "D580RM:relevance:price:%2450-%24199.99",
					"filterQueries": [],
					"searchQueryContext": null
				}
			},
			"selected": false
		}, {
			"code": "$200-$499.99",
			"name": "$200-$499.99",
			"count": 1,
			"query": {
				"url": "/search?q=D580RM%3Arelevance%3Aprice%3A%2524200-%2524499.99",
				"query": {
					"value": "D580RM:relevance:price:%24200-%24499.99",
					"filterQueries": [],
					"searchQueryContext": null
				}
			},
			"selected": false
		}, {
			"code": "$500-$999.99",
			"name": "$500-$999.99",
			"count": 6,
			"query": {
				"url": "/search?q=D580RM%3Arelevance%3Aprice%3A%2524500-%2524999.99",
				"query": {
					"value": "D580RM:relevance:price:%24500-%24999.99",
					"filterQueries": [],
					"searchQueryContext": null
				}
			},
			"selected": false
		}, {
			"code": "$1,000-$100,000",
			"name": "$1,000-$100,000",
			"count": 7,
			"query": {
				"url": "/search?q=D580RM%3Arelevance%3Aprice%3A%25241%252C000-%2524100%252C000",
				"query": {
					"value": "D580RM:relevance:price:%241%2C000-%24100%2C000",
					"filterQueries": [],
					"searchQueryContext": null
				}
			},
			"selected": false
		}]
	}, {
		"code": "Mounting, 1867",
		"name": "Mounting",
		"priority": 1000,
		"category": false,
		"multiSelect": false,
		"visible": true,
		"topValues": null,
		"values": [{
			"code": "Floor-standing",
			"name": "Floor-standing",
			"count": 1,
			"query": {
				"url": "/search?q=D580RM%3Arelevance%3AMounting%2C+1867%3AFloor-standing",
				"query": {
					"value": "D580RM:relevance:Mounting, 1867:Floor-standing",
					"filterQueries": [],
					"searchQueryContext": null
				}
			},
			"selected": true
		}]
	}, {
		"code": "Megapixel, 63",
		"name": "Megapixels",
		"priority": 1000,
		"category": false,
		"multiSelect": true,
		"visible": true,
		"topValues": null,
		"values": [{
			"code": "15 - 15.9 mp",
			"name": "15 - 15.9 mp",
			"count": 8,
			"query": {
				"url": "/search?q=D580RM%3Arelevance%3AMegapixel%2C+63%3A15%2B-%2B15.9%2Bmp",
				"query": {
					"value": "D580RM:relevance:Megapixel, 63:15+-+15.9+mp",
					"filterQueries": [],
					"searchQueryContext": null
				}
			},
			"selected": false
		}, {
			"code": "12 - 12.9 mp",
			"name": "12 - 12.9 mp",
			"count": 1,
			"query": {
				"url": "/search?q=D580RM%3Arelevance%3AMegapixel%2C+63%3A12%2B-%2B12.9%2Bmp",
				"query": {
					"value": "D580RM:relevance:Megapixel, 63:12+-+12.9+mp",
					"filterQueries": [],
					"searchQueryContext": null
				}
			},
			"selected": false
		}, {
			"code": "10 - 10.9 mp",
			"name": "10 - 10.9 mp",
			"count": 3,
			"query": {
				"url": "/search?q=D580RM%3Arelevance%3AMegapixel%2C+63%3A10%2B-%2B10.9%2Bmp",
				"query": {
					"value": "D580RM:relevance:Megapixel, 63:10+-+10.9+mp",
					"filterQueries": [],
					"searchQueryContext": null
				}
			},
			"selected": false
		}, {
			"code": "8 - 8.9 mp",
			"name": "8 - 8.9 mp",
			"count": 2,
			"query": {
				"url": "/search?q=D580RM%3Arelevance%3AMegapixel%2C+63%3A8%2B-%2B8.9%2Bmp",
				"query": {
					"value": "D580RM:relevance:Megapixel, 63:8+-+8.9+mp",
					"filterQueries": [],
					"searchQueryContext": null
				}
			},
			"selected": false
		}]
	}, {
		"code": "category",
		"name": "Category",
		"priority": 100,
		"category": true,
		"multiSelect": false,
		"visible": true,
		"topValues": null,
		"values": [{
			"code": "575",
			"name": "Digital Cameras",
			"count": 15,
			"query": {
				"url": "/search?q=D580RM%3Arelevance%3Acategory%3A575",
				"query": {
					"value": "D580RM:relevance:category:575",
					"filterQueries": [],
					"searchQueryContext": null
				}
			},
			"selected": true
		}, {
			"code": "578",
			"name": "Digital SLR",
			"count": 15,
			"query": {
				"url": "/search?q=D580RM%3Arelevance%3Acategory%3A578",
				"query": {
					"value": "D580RM:relevance:category:578",
					"filterQueries": [],
					"searchQueryContext": null
				}
			},
			"selected": false
		}, {
			"code": "1201",
			"name": "Fixatives",
			"count": 1,
			"query": {
				"url": "/search?q=D580RM%3Arelevance%3Acategory%3A1201",
				"query": {
					"value": "D580RM:relevance:category:1201",
					"filterQueries": [],
					"searchQueryContext": null
				}
			},
			"selected": false
		}, {
			"code": "585",
			"name": "Camera Accessories & Supplies",
			"count": 1,
			"query": {
				"url": "/search?q=D580RM%3Arelevance%3Acategory%3A585",
				"query": {
					"value": "D580RM:relevance:category:585",
					"filterQueries": [],
					"searchQueryContext": null
				}
			},
			"selected": false
		}, {
			"code": "587",
			"name": "Tripods",
			"count": 1,
			"query": {
				"url": "/search?q=D580RM%3Arelevance%3Acategory%3A587",
				"query": {
					"value": "D580RM:relevance:category:587",
					"filterQueries": [],
					"searchQueryContext": null
				}
			},
			"selected": false
		}]
	}, {
		"code": "brand",
		"name": "Brand",
		"priority": 100,
		"category": true,
		"multiSelect": false,
		"visible": true,
		"topValues": null,
		"values": [{
			"code": "brand_10",
			"name": "Canon",
			"count": 13,
			"query": {
				"url": "/search?q=D580RM%3Arelevance%3Abrand%3Abrand_10",
				"query": {
					"value": "D580RM:relevance:brand:brand_10",
					"filterQueries": [],
					"searchQueryContext": null
				}
			},
			"selected": false
		}, {
			"code": "brand_5",
			"name": "Sony",
			"count": 3,
			"query": {
				"url": "/search?q=D580RM%3Arelevance%3Abrand%3Abrand_5",
				"query": {
					"value": "D580RM:relevance:brand:brand_5",
					"filterQueries": [],
					"searchQueryContext": null
				}
			},
			"selected": false
		}]
	}],
	"freeTextSearch": "D580RM",
	"categoryCode": null,
	"keywordRedirectUrl": null,
	"spellingSuggestion": null,
	"subCategories": null
}